All statistics are based on contigs of size >= 500 bp, unless otherwise noted (e.g., "# contigs (>= 0 bp)" and "Total length (>= 0 bp)" include all contigs).

Assembly                       # contigs (>= 0 bp)  # contigs (>= 1000 bp)  # contigs (>= 5000 bp)  # contigs (>= 10000 bp)  # contigs (>= 25000 bp)  # contigs (>= 50000 bp)  Total length (>= 0 bp)  Total length (>= 1000 bp)  Total length (>= 5000 bp)  Total length (>= 10000 bp)  Total length (>= 25000 bp)  Total length (>= 50000 bp)  # contigs  Largest contig  Total length  GC (%)  N50   N90  auN     L50    L90     # N's per 100 kbp
combined_stringtie_eggnog.cds  271318               71765                   620                     23                       0                        0                        226382259               121404042                  3889050                    283530                      0                           0                           166574     16935           188317989     44.13   1260  621  1596.5  47417  132765  0.56             
