All statistics are based on contigs of size >= 500 bp, unless otherwise noted (e.g., "# contigs (>= 0 bp)" and "Total length (>= 0 bp)" include all contigs).

Assembly                    stringtie2_hybrid_allshort_transcripts.fa.transdecoder.cds
# contigs (>= 0 bp)         47132                                                     
# contigs (>= 1000 bp)      16929                                                     
# contigs (>= 5000 bp)      295                                                       
# contigs (>= 10000 bp)     15                                                        
# contigs (>= 25000 bp)     0                                                         
# contigs (>= 50000 bp)     0                                                         
Total length (>= 0 bp)      48002949                                                  
Total length (>= 1000 bp)   31223934                                                  
Total length (>= 5000 bp)   1927215                                                   
Total length (>= 10000 bp)  194964                                                    
Total length (>= 25000 bp)  0                                                         
Total length (>= 50000 bp)  0                                                         
# contigs                   32407                                                     
Largest contig              16935                                                     
Total length                42345126                                                  
GC (%)                      44.12                                                     
N50                         1509                                                      
N90                         687                                                       
auN                         1948.5                                                    
L50                         8759                                                      
L90                         25204                                                     
# N's per 100 kbp           0.00                                                      
