All statistics are based on contigs of size >= 500 bp, unless otherwise noted (e.g., "# contigs (>= 0 bp)" and "Total length (>= 0 bp)" include all contigs).

Assembly                          # contigs (>= 0 bp)  # contigs (>= 1000 bp)  # contigs (>= 5000 bp)  # contigs (>= 10000 bp)  # contigs (>= 25000 bp)  # contigs (>= 50000 bp)  Total length (>= 0 bp)  Total length (>= 1000 bp)  Total length (>= 5000 bp)  Total length (>= 10000 bp)  Total length (>= 25000 bp)  Total length (>= 50000 bp)  # contigs  Largest contig  Total length  GC (%)  N50   N90  auN     L50    L90     # N's per 100 kbp
braker_genes_eggnog_filtered.cds  219474               50991                   267                     8                        0                        0                        170279169               82784355                   1639236                    90687                       0                           0                           129493     15351           137907522     44.10   1164  603  1451.5  38145  104376  0.77             
