Assembly	stringtie_merge_transcripts
# contigs (>= 0 bp)	63123
# contigs (>= 1000 bp)	38033
# contigs (>= 5000 bp)	1312
# contigs (>= 10000 bp)	41
# contigs (>= 25000 bp)	0
# contigs (>= 50000 bp)	0
Total length (>= 0 bp)	99871497
Total length (>= 1000 bp)	86009163
Total length (>= 5000 bp)	8512319
Total length (>= 10000 bp)	525804
Total length (>= 25000 bp)	0
Total length (>= 50000 bp)	0
# contigs	51554
Largest contig	17845
Total length	96063505
GC (%)	42.17
N50	2281
N90	981
auN	2702.1
L50	13875
L90	38486
# N's per 100 kbp	0.00
