Assembly	stringtie2_hybrid_allshort_transcripts
# contigs (>= 0 bp)	62936
# contigs (>= 1000 bp)	27142
# contigs (>= 5000 bp)	611
# contigs (>= 10000 bp)	19
# contigs (>= 25000 bp)	0
# contigs (>= 50000 bp)	0
Total length (>= 0 bp)	74303074
Total length (>= 1000 bp)	54729993
Total length (>= 5000 bp)	3933052
Total length (>= 10000 bp)	245586
Total length (>= 25000 bp)	0
Total length (>= 50000 bp)	0
# contigs	46059
Largest contig	17688
Total length	68413641
GC (%)	42.92
N50	1807
N90	754
auN	2231.5
L50	11962
L90	35005
# N's per 100 kbp	0.00
