All statistics are based on contigs of size >= 500 bp, unless otherwise noted (e.g., "# contigs (>= 0 bp)" and "Total length (>= 0 bp)" include all contigs).

Assembly                                # contigs (>= 0 bp)  # contigs (>= 1000 bp)  # contigs (>= 5000 bp)  # contigs (>= 10000 bp)  # contigs (>= 25000 bp)  # contigs (>= 50000 bp)  Total length (>= 0 bp)  Total length (>= 1000 bp)  Total length (>= 5000 bp)  Total length (>= 10000 bp)  Total length (>= 25000 bp)  Total length (>= 50000 bp)  # contigs  Largest contig  Total length  GC (%)  N50   N90  auN     L50    L90    # N's per 100 kbp
stringtie2_hybrid_allshort_transcripts  62936                27142                   611                     19                       0                        0                        74303074                54729993                   3933052                    245586                      0                           0                           46059      17688           68413641      42.92   1807  754  2231.5  11962  35005  0.00             
