Assembly	augustus.hints.codingseq
# contigs (>= 0 bp)	625860
# contigs (>= 1000 bp)	63507
# contigs (>= 5000 bp)	284
# contigs (>= 10000 bp)	9
# contigs (>= 25000 bp)	0
# contigs (>= 50000 bp)	0
Total length (>= 0 bp)	342534920
Total length (>= 1000 bp)	99210720
Total length (>= 5000 bp)	1742916
Total length (>= 10000 bp)	101361
Total length (>= 25000 bp)	0
Total length (>= 50000 bp)	0
# contigs	223884
Largest contig	15351
Total length	208316862
GC (%)	45.16
N50	963
N90	561
auN	1252.5
L50	68546
L90	184471
# N's per 100 kbp	0.96
