/isg/shared/apps/quast/5.2.0/quast.py -o st1_braker_eggnog /core/labs/Wegrzyn/whitebarkpine/stringtie/combined_stringtie_eggnog.cds

Version: 5.2.0, 3d87c606

System information:
  OS: Linux-3.10.0-1062.12.1.el7.x86_64-x86_64-with-glibc2.17 (linux_64)
  Python version: 3.8.1
  CPUs number: 40

Started: 2023-02-10 12:13:30

Logging to /core/labs/Wegrzyn/whitebarkpine/stringtie/going_insane/genomic_quast/st1_braker_eggnog/quast.log
NOTICE: Maximum number of threads is set to 10 (use --threads option to set it manually)

CWD: /core/labs/Wegrzyn/whitebarkpine/stringtie/going_insane/genomic_quast
Main parameters: 
  MODE: default, threads: 10, min contig length: 500, min alignment length: 65, min alignment IDY: 95.0, \
  ambiguity: one, min local misassembly length: 200, min extensive misassembly length: 1000

WARNING: Can't draw plots: python-matplotlib is missing or corrupted.

Contigs:
  Pre-processing...
  /core/labs/Wegrzyn/whitebarkpine/stringtie/combined_stringtie_eggnog.cds ==> combined_stringtie_eggnog.cds

2023-02-10 12:13:36
Running Basic statistics processor...
  Contig files: 
    combined_stringtie_eggnog.cds
  Calculating N50 and L50...
    combined_stringtie_eggnog.cds, N50 = 1260, L50 = 47417, auN = 1596.5, Total length = 188317989, GC % = 44.13, # N's per 100 kbp =  0.56
Done.

NOTICE: Genes are not predicted by default. Use --gene-finding or --glimmer option to enable it.

2023-02-10 12:13:43
Creating large visual summaries...
This may take a while: press Ctrl-C to skip this step..
  1 of 1: Creating Icarus viewers...
Done

2023-02-10 12:13:45
RESULTS:
  Text versions of total report are saved to /core/labs/Wegrzyn/whitebarkpine/stringtie/going_insane/genomic_quast/st1_braker_eggnog/report.txt, report.tsv, and report.tex
  Text versions of transposed total report are saved to /core/labs/Wegrzyn/whitebarkpine/stringtie/going_insane/genomic_quast/st1_braker_eggnog/transposed_report.txt, transposed_report.tsv, and transposed_report.tex
  HTML version (interactive tables and plots) is saved to /core/labs/Wegrzyn/whitebarkpine/stringtie/going_insane/genomic_quast/st1_braker_eggnog/report.html
  Icarus (contig browser) is saved to /core/labs/Wegrzyn/whitebarkpine/stringtie/going_insane/genomic_quast/st1_braker_eggnog/icarus.html
  Log is saved to /core/labs/Wegrzyn/whitebarkpine/stringtie/going_insane/genomic_quast/st1_braker_eggnog/quast.log

Finished: 2023-02-10 12:13:45
Elapsed time: 0:00:15.446856
NOTICEs: 2; WARNINGs: 1; non-fatal ERRORs: 0

Thank you for using QUAST!
