Assembly	stringtie_merge_transcripts.fa.transdecoder.cds
# contigs (>= 0 bp)	51844
# contigs (>= 1000 bp)	20774
# contigs (>= 5000 bp)	353
# contigs (>= 10000 bp)	15
# contigs (>= 25000 bp)	0
# contigs (>= 50000 bp)	0
Total length (>= 0 bp)	56103090
Total length (>= 1000 bp)	38619687
Total length (>= 5000 bp)	2249814
Total length (>= 10000 bp)	192843
Total length (>= 25000 bp)	0
Total length (>= 50000 bp)	0
# contigs	37081
Largest contig	16935
Total length	50410467
GC (%)	44.20
N50	1566
N90	717
auN	1993.3
L50	10105
L90	28695
# N's per 100 kbp	0.00
